vhdl xbip_utils_v3_0 "../completed/XSim_Tutorial/XSim_Tutorial.srcs/sources_1/ip/sine_high/xbip_utils_v3_0/hdl/xbip_utils_v3_0_pkg.vhd"
vhdl xbip_utils_v3_0 "../completed/XSim_Tutorial/XSim_Tutorial.srcs/sources_1/ip/sine_high/xbip_utils_v3_0/hdl/xcc_utils_v3_0.vhd"
vhdl axi_utils_v2_0 "../completed/XSim_Tutorial/XSim_Tutorial.srcs/sources_1/ip/sine_high/axi_utils_v2_0/hdl/global_util_pkg.vhd"
vhdl axi_utils_v2_0 "../completed/XSim_Tutorial/XSim_Tutorial.srcs/sources_1/ip/sine_high/axi_utils_v2_0/hdl/axi_utils_v2_0_pkg.vhd"
vhdl axi_utils_v2_0 "../completed/XSim_Tutorial/XSim_Tutorial.srcs/sources_1/ip/sine_high/axi_utils_v2_0/hdl/axi_utils_comps.vhd"
vhdl axi_utils_v2_0 "../completed/XSim_Tutorial/XSim_Tutorial.srcs/sources_1/ip/sine_high/axi_utils_v2_0/hdl/glb_srl_fifo.vhd"
vhdl axi_utils_v2_0 "../completed/XSim_Tutorial/XSim_Tutorial.srcs/sources_1/ip/sine_high/axi_utils_v2_0/hdl/glb_ifx_slave.vhd"
vhdl axi_utils_v2_0 "../completed/XSim_Tutorial/XSim_Tutorial.srcs/sources_1/ip/sine_high/axi_utils_v2_0/hdl/glb_ifx_master.vhd"
vhdl axi_utils_v2_0 "../completed/XSim_Tutorial/XSim_Tutorial.srcs/sources_1/ip/sine_high/axi_utils_v2_0/hdl/axi_slave_2to1.vhd"
vhdl axi_utils_v2_0 "../completed/XSim_Tutorial/XSim_Tutorial.srcs/sources_1/ip/sine_high/axi_utils_v2_0/hdl/axi_slave_3to1.vhd"
vhdl axi_utils_v2_0 "../completed/XSim_Tutorial/XSim_Tutorial.srcs/sources_1/ip/sine_high/axi_utils_v2_0/hdl/axi_slave_4to1.vhd"
vhdl xbip_pipe_v3_0 "../completed/XSim_Tutorial/XSim_Tutorial.srcs/sources_1/ip/sine_high/xbip_pipe_v3_0/hdl/xbip_pipe_v3_0_viv_comp.vhd"
vhdl xbip_pipe_v3_0 "../completed/XSim_Tutorial/XSim_Tutorial.srcs/sources_1/ip/sine_high/xbip_pipe_v3_0/hdl/xbip_pipe_v3_0_comp.vhd"
vhdl xbip_pipe_v3_0 "../completed/XSim_Tutorial/XSim_Tutorial.srcs/sources_1/ip/sine_high/xbip_pipe_v3_0/hdl/xbip_pipe_v3_0_viv.vhd"
vhdl xbip_pipe_v3_0 "../completed/XSim_Tutorial/XSim_Tutorial.srcs/sources_1/ip/sine_high/xbip_pipe_v3_0/hdl/xbip_pipe_v3_0.vhd"
vhdl xbip_bram18k_v3_0 "../completed/XSim_Tutorial/XSim_Tutorial.srcs/sources_1/ip/sine_high/xbip_bram18k_v3_0/hdl/xbip_bram18k_v3_0_pkg.vhd"
vhdl xbip_bram18k_v3_0 "../completed/XSim_Tutorial/XSim_Tutorial.srcs/sources_1/ip/sine_high/xbip_bram18k_v3_0/hdl/xbip_bram18k_v3_0_viv_comp.vhd"
vhdl xbip_bram18k_v3_0 "../completed/XSim_Tutorial/XSim_Tutorial.srcs/sources_1/ip/sine_high/xbip_bram18k_v3_0/hdl/xbip_bram18k_hdl_pkg.vhd"
vhdl xbip_bram18k_v3_0 "../completed/XSim_Tutorial/XSim_Tutorial.srcs/sources_1/ip/sine_high/xbip_bram18k_v3_0/hdl/xbip_bram18k_synth.vhd"
vhdl xbip_bram18k_v3_0 "../completed/XSim_Tutorial/XSim_Tutorial.srcs/sources_1/ip/sine_high/xbip_bram18k_v3_0/hdl/xbip_bram18k_rtl.vhd"
vhdl xbip_bram18k_v3_0 "../completed/XSim_Tutorial/XSim_Tutorial.srcs/sources_1/ip/sine_high/xbip_bram18k_v3_0/hdl/xbip_bram18k_v3_0_viv.vhd"
vhdl xbip_bram18k_v3_0 "../completed/XSim_Tutorial/XSim_Tutorial.srcs/sources_1/ip/sine_high/xbip_bram18k_v3_0/hdl/xbip_bram18k_v3_0.vhd"
vhdl mult_gen_v12_0 "../completed/XSim_Tutorial/XSim_Tutorial.srcs/sources_1/ip/sine_high/mult_gen_v12_0/hdl/mult_gen_v12_0_comp.vhd"
vhdl mult_gen_v12_0 "../completed/XSim_Tutorial/XSim_Tutorial.srcs/sources_1/ip/sine_high/mult_gen_v12_0/hdl/mult_gen_v12_0_viv_comp.vhd"
vhdl mult_gen_v12_0 "../completed/XSim_Tutorial/XSim_Tutorial.srcs/sources_1/ip/sine_high/mult_gen_v12_0/hdl/mult_gen_v12_0_pkg.vhd"
vhdl mult_gen_v12_0 "../completed/XSim_Tutorial/XSim_Tutorial.srcs/sources_1/ip/sine_high/mult_gen_v12_0/hdl/op_resize.vhd"
vhdl mult_gen_v12_0 "../completed/XSim_Tutorial/XSim_Tutorial.srcs/sources_1/ip/sine_high/mult_gen_v12_0/hdl/delay_line.vhd"
vhdl mult_gen_v12_0 "../completed/XSim_Tutorial/XSim_Tutorial.srcs/sources_1/ip/sine_high/mult_gen_v12_0/hdl/cc_compare.vhd"
vhdl mult_gen_v12_0 "../completed/XSim_Tutorial/XSim_Tutorial.srcs/sources_1/ip/sine_high/mult_gen_v12_0/hdl/luts.vhd"
vhdl mult_gen_v12_0 "../completed/XSim_Tutorial/XSim_Tutorial.srcs/sources_1/ip/sine_high/mult_gen_v12_0/hdl/mult18.vhd"
vhdl mult_gen_v12_0 "../completed/XSim_Tutorial/XSim_Tutorial.srcs/sources_1/ip/sine_high/mult_gen_v12_0/hdl/dsp_pkg.vhd"
vhdl mult_gen_v12_0 "../completed/XSim_Tutorial/XSim_Tutorial.srcs/sources_1/ip/sine_high/mult_gen_v12_0/hdl/dsp.vhd"
vhdl mult_gen_v12_0 "../completed/XSim_Tutorial/XSim_Tutorial.srcs/sources_1/ip/sine_high/mult_gen_v12_0/hdl/hybrid.vhd"
vhdl mult_gen_v12_0 "../completed/XSim_Tutorial/XSim_Tutorial.srcs/sources_1/ip/sine_high/mult_gen_v12_0/hdl/ccm_dist_mem.vhd"
vhdl mult_gen_v12_0 "../completed/XSim_Tutorial/XSim_Tutorial.srcs/sources_1/ip/sine_high/mult_gen_v12_0/hdl/ccm_sp_block_mem.vhd"
vhdl mult_gen_v12_0 "../completed/XSim_Tutorial/XSim_Tutorial.srcs/sources_1/ip/sine_high/mult_gen_v12_0/hdl/ccm_dp_block_mem.vhd"
vhdl mult_gen_v12_0 "../completed/XSim_Tutorial/XSim_Tutorial.srcs/sources_1/ip/sine_high/mult_gen_v12_0/hdl/ccm_syncmem.vhd"
vhdl mult_gen_v12_0 "../completed/XSim_Tutorial/XSim_Tutorial.srcs/sources_1/ip/sine_high/mult_gen_v12_0/hdl/ccm_scaled_adder.vhd"
vhdl mult_gen_v12_0 "../completed/XSim_Tutorial/XSim_Tutorial.srcs/sources_1/ip/sine_high/mult_gen_v12_0/hdl/ccm_operation.vhd"
vhdl mult_gen_v12_0 "../completed/XSim_Tutorial/XSim_Tutorial.srcs/sources_1/ip/sine_high/mult_gen_v12_0/hdl/ccm.vhd"
vhdl mult_gen_v12_0 "../completed/XSim_Tutorial/XSim_Tutorial.srcs/sources_1/ip/sine_high/mult_gen_v12_0/hdl/three_input_adder.vhd"
vhdl mult_gen_v12_0 "../completed/XSim_Tutorial/XSim_Tutorial.srcs/sources_1/ip/sine_high/mult_gen_v12_0/hdl/multMxN_lut6.vhd"
vhdl mult_gen_v12_0 "../completed/XSim_Tutorial/XSim_Tutorial.srcs/sources_1/ip/sine_high/mult_gen_v12_0/hdl/mult_gen_v12_0_viv.vhd"
vhdl mult_gen_v12_0 "../completed/XSim_Tutorial/XSim_Tutorial.srcs/sources_1/ip/sine_high/mult_gen_v12_0/hdl/mult_gen_v12_0.vhd"
vhdl xbip_dsp48_wrapper_v3_0 "../completed/XSim_Tutorial/XSim_Tutorial.srcs/sources_1/ip/sine_high/xbip_dsp48_wrapper_v3_0/hdl/xbip_dsp48_wrapper_v3_0_pkg.vhd"
vhdl xbip_dsp48_wrapper_v3_0 "../completed/XSim_Tutorial/XSim_Tutorial.srcs/sources_1/ip/sine_high/xbip_dsp48_wrapper_v3_0/hdl/xbip_dsp48a_wrapper_v3_0.vhd"
vhdl xbip_dsp48_wrapper_v3_0 "../completed/XSim_Tutorial/XSim_Tutorial.srcs/sources_1/ip/sine_high/xbip_dsp48_wrapper_v3_0/hdl/xbip_dsp48a1_wrapper_v3_0.vhd"
vhdl xbip_dsp48_wrapper_v3_0 "../completed/XSim_Tutorial/XSim_Tutorial.srcs/sources_1/ip/sine_high/xbip_dsp48_wrapper_v3_0/hdl/xbip_dsp48e_wrapper_v3_0.vhd"
vhdl xbip_dsp48_wrapper_v3_0 "../completed/XSim_Tutorial/XSim_Tutorial.srcs/sources_1/ip/sine_high/xbip_dsp48_wrapper_v3_0/hdl/xbip_dsp48e1_wrapper_v3_0.vhd"
vhdl xbip_dsp48_wrapper_v3_0 "../completed/XSim_Tutorial/XSim_Tutorial.srcs/sources_1/ip/sine_high/xbip_dsp48_wrapper_v3_0/hdl/xbip_dsp48e2_wrapper_v3_0.vhd"
vhdl xbip_dsp48_wrapper_v3_0 "../completed/XSim_Tutorial/XSim_Tutorial.srcs/sources_1/ip/sine_high/xbip_dsp48_wrapper_v3_0/hdl/xbip_dsp48_wrapper_v3_0.vhd"
vhdl xbip_dsp48_addsub_v3_0 "../completed/XSim_Tutorial/XSim_Tutorial.srcs/sources_1/ip/sine_high/xbip_dsp48_addsub_v3_0/hdl/xbip_dsp48_addsub_v3_0_viv_comp.vhd"
vhdl xbip_dsp48_addsub_v3_0 "../completed/XSim_Tutorial/XSim_Tutorial.srcs/sources_1/ip/sine_high/xbip_dsp48_addsub_v3_0/hdl/xbip_dsp48_addsub_v3_0_comp.vhd"
vhdl xbip_dsp48_addsub_v3_0 "../completed/XSim_Tutorial/XSim_Tutorial.srcs/sources_1/ip/sine_high/xbip_dsp48_addsub_v3_0/hdl/xbip_dsp48_addsub_v3_0_pkg.vhd"
vhdl xbip_dsp48_addsub_v3_0 "../completed/XSim_Tutorial/XSim_Tutorial.srcs/sources_1/ip/sine_high/xbip_dsp48_addsub_v3_0/hdl/xbip_dsp48_addsub_rtl.vhd"
vhdl xbip_dsp48_addsub_v3_0 "../completed/XSim_Tutorial/XSim_Tutorial.srcs/sources_1/ip/sine_high/xbip_dsp48_addsub_v3_0/hdl/xbip_dsp48_addsub_synth.vhd"
vhdl xbip_dsp48_addsub_v3_0 "../completed/XSim_Tutorial/XSim_Tutorial.srcs/sources_1/ip/sine_high/xbip_dsp48_addsub_v3_0/hdl/xbip_dsp48_addsub_v3_0_viv.vhd"
vhdl xbip_dsp48_addsub_v3_0 "../completed/XSim_Tutorial/XSim_Tutorial.srcs/sources_1/ip/sine_high/xbip_dsp48_addsub_v3_0/hdl/xbip_dsp48_addsub_v3_0.vhd"
vhdl xbip_dsp48_multadd_v3_0 "../completed/XSim_Tutorial/XSim_Tutorial.srcs/sources_1/ip/sine_high/xbip_dsp48_multadd_v3_0/hdl/xbip_dsp48_multadd_v3_0_viv_comp.vhd"
vhdl xbip_dsp48_multadd_v3_0 "../completed/XSim_Tutorial/XSim_Tutorial.srcs/sources_1/ip/sine_high/xbip_dsp48_multadd_v3_0/hdl/xbip_dsp48_multadd_v3_0_comp.vhd"
vhdl xbip_dsp48_multadd_v3_0 "../completed/XSim_Tutorial/XSim_Tutorial.srcs/sources_1/ip/sine_high/xbip_dsp48_multadd_v3_0/hdl/xbip_dsp48_multadd_v3_0_pkg.vhd"
vhdl xbip_dsp48_multadd_v3_0 "../completed/XSim_Tutorial/XSim_Tutorial.srcs/sources_1/ip/sine_high/xbip_dsp48_multadd_v3_0/hdl/xbip_dsp48_multadd_rtl.vhd"
vhdl xbip_dsp48_multadd_v3_0 "../completed/XSim_Tutorial/XSim_Tutorial.srcs/sources_1/ip/sine_high/xbip_dsp48_multadd_v3_0/hdl/xbip_dsp48_multadd_synth.vhd"
vhdl xbip_dsp48_multadd_v3_0 "../completed/XSim_Tutorial/XSim_Tutorial.srcs/sources_1/ip/sine_high/xbip_dsp48_multadd_v3_0/hdl/xbip_dsp48_multadd_v3_0_viv.vhd"
vhdl xbip_dsp48_multadd_v3_0 "../completed/XSim_Tutorial/XSim_Tutorial.srcs/sources_1/ip/sine_high/xbip_dsp48_multadd_v3_0/hdl/xbip_dsp48_multadd_v3_0.vhd"
vhdl dds_compiler_v6_0 "../completed/XSim_Tutorial/XSim_Tutorial.srcs/sources_1/ip/sine_high/dds_compiler_v6_0/hdl/dds_compiler_v6_0_viv_comp.vhd"
vhdl dds_compiler_v6_0 "../completed/XSim_Tutorial/XSim_Tutorial.srcs/sources_1/ip/sine_high/dds_compiler_v6_0/hdl/dds_compiler_v6_0_comp.vhd"
vhdl dds_compiler_v6_0 "../completed/XSim_Tutorial/XSim_Tutorial.srcs/sources_1/ip/sine_high/dds_compiler_v6_0/hdl/pkg_dds_compiler_v6_0.vhd"
vhdl dds_compiler_v6_0 "../completed/XSim_Tutorial/XSim_Tutorial.srcs/sources_1/ip/sine_high/dds_compiler_v6_0/hdl/pkg_beta.vhd"
vhdl dds_compiler_v6_0 "../completed/XSim_Tutorial/XSim_Tutorial.srcs/sources_1/ip/sine_high/dds_compiler_v6_0/hdl/pkg_alpha.vhd"
vhdl dds_compiler_v6_0 "../completed/XSim_Tutorial/XSim_Tutorial.srcs/sources_1/ip/sine_high/dds_compiler_v6_0/hdl/dds_compiler_v6_0_hdl_comps.vhd"
vhdl dds_compiler_v6_0 "../completed/XSim_Tutorial/XSim_Tutorial.srcs/sources_1/ip/sine_high/dds_compiler_v6_0/hdl/dither_wrap.vhd"
vhdl dds_compiler_v6_0 "../completed/XSim_Tutorial/XSim_Tutorial.srcs/sources_1/ip/sine_high/dds_compiler_v6_0/hdl/pipe_add.vhd"
vhdl dds_compiler_v6_0 "../completed/XSim_Tutorial/XSim_Tutorial.srcs/sources_1/ip/sine_high/dds_compiler_v6_0/hdl/lut_ram.vhd"
vhdl dds_compiler_v6_0 "../completed/XSim_Tutorial/XSim_Tutorial.srcs/sources_1/ip/sine_high/dds_compiler_v6_0/hdl/lut5_ram.vhd"
vhdl dds_compiler_v6_0 "../completed/XSim_Tutorial/XSim_Tutorial.srcs/sources_1/ip/sine_high/dds_compiler_v6_0/hdl/sin_cos.vhd"
vhdl dds_compiler_v6_0 "../completed/XSim_Tutorial/XSim_Tutorial.srcs/sources_1/ip/sine_high/dds_compiler_v6_0/hdl/sin_cos_quad_rast.vhd"
vhdl dds_compiler_v6_0 "../completed/XSim_Tutorial/XSim_Tutorial.srcs/sources_1/ip/sine_high/dds_compiler_v6_0/hdl/dsp48_wrap.vhd"
vhdl dds_compiler_v6_0 "../completed/XSim_Tutorial/XSim_Tutorial.srcs/sources_1/ip/sine_high/dds_compiler_v6_0/hdl/accum.vhd"
vhdl dds_compiler_v6_0 "../completed/XSim_Tutorial/XSim_Tutorial.srcs/sources_1/ip/sine_high/dds_compiler_v6_0/hdl/raster_accum.vhd"
vhdl dds_compiler_v6_0 "../completed/XSim_Tutorial/XSim_Tutorial.srcs/sources_1/ip/sine_high/dds_compiler_v6_0/hdl/dds_compiler_v6_0_eff_lut.vhd"
vhdl dds_compiler_v6_0 "../completed/XSim_Tutorial/XSim_Tutorial.srcs/sources_1/ip/sine_high/dds_compiler_v6_0/hdl/dds_compiler_v6_0_eff.vhd"
vhdl dds_compiler_v6_0 "../completed/XSim_Tutorial/XSim_Tutorial.srcs/sources_1/ip/sine_high/dds_compiler_v6_0/hdl/dds_compiler_v6_0_rdy.vhd"
vhdl dds_compiler_v6_0 "../completed/XSim_Tutorial/XSim_Tutorial.srcs/sources_1/ip/sine_high/dds_compiler_v6_0/hdl/dds_compiler_v6_0_core.vhd"
vhdl dds_compiler_v6_0 "../completed/XSim_Tutorial/XSim_Tutorial.srcs/sources_1/ip/sine_high/dds_compiler_v6_0/hdl/dds_compiler_v6_0_viv.vhd"
vhdl dds_compiler_v6_0 "../completed/XSim_Tutorial/XSim_Tutorial.srcs/sources_1/ip/sine_high/dds_compiler_v6_0/hdl/dds_compiler_v6_0.vhd"
vhdl xil_defaultlib "../completed/XSim_Tutorial/XSim_Tutorial.srcs/sources_1/ip/sine_high/sim/sine_high.vhd"
vhdl xil_defaultlib "../completed/XSim_Tutorial/XSim_Tutorial.srcs/sources_1/ip/sine_high/demo_tb/tb_sine_high.vhd"
vhdl xil_defaultlib "../completed/XSim_Tutorial/XSim_Tutorial.srcs/sources_1/ip/sine_mid/sim/sine_mid.vhd"
vhdl xil_defaultlib "../completed/XSim_Tutorial/XSim_Tutorial.srcs/sources_1/ip/sine_mid/demo_tb/tb_sine_mid.vhd"
vhdl xil_defaultlib "../completed/XSim_Tutorial/XSim_Tutorial.srcs/sources_1/ip/sine_low/sim/sine_low.vhd"
vhdl xil_defaultlib "../completed/XSim_Tutorial/XSim_Tutorial.srcs/sources_1/ip/sine_low/demo_tb/tb_sine_low.vhd"

verilog xil_defaultlib "$XILINX_VIVADO/data/verilog/src/glbl.v"
